…
The `instacart` dataset contains 1384617 observation and 15 variables.
The variables that exist in this dataset include identifiers, orders,
aisle and name of products. There are 39123 products found in 131209
orders from 131209 buyers.

There are 134 aisles and fresh vegetables and fruits are by far the most
ordered items. The table below provides this count.

``` r
instacart %>% 
  count(aisle) %>% 
  arrange(desc(n))
## # A tibble: 134 × 2
##    aisle                              n
##    <chr>                          <int>
##  1 fresh vegetables              150609
##  2 fresh fruits                  150473
##  3 packaged vegetables fruits     78493
##  4 yogurt                         55240
##  5 packaged cheese                41699
##  6 water seltzer sparkling water  36617
##  7 milk                           32644
##  8 chips pretzels                 31269
##  9 soy lactosefree                26240
## 10 bread                          23635
## # … with 124 more rows
```
…
Let’s find the count of most common values for snowfall (`snow`). The
table below shows that 0 mm is the most common observation. This is
probably because from January 1, 1981 through December 31, 2010,the
weather in New York was not prone to heavy snow fall during the winter
and during the other seasonal months the expected snowfall count is 0mm.
Global warming and climate change could result in changes in these
observations; however,that data was not explored in this problem.

``` r
noaa_df %>% 
  count(snow, name = "n_obs") %>% 
  arrange(desc(n_obs))
## # A tibble: 282 × 2
##     snow   n_obs
##    <dbl>   <int>
##  1   0   2008508
##  2  NA    381221
##  3   2.5   31022
##  4   1.3   23095
##  5   5.1   18274
##  6   7.6   10173
##  7   0.8    9962
##  8   0.5    9748
##  9   3.8    9197
## 10   0.3    8790
## # … with 272 more rows
```
…
